<?xml version="1.0" encoding="iso-8859-1"?>
<!-- Generator: Adobe Illustrator 18.0.0, SVG Export Plug-In . SVG Version: 6.00 Build 0)  -->
<!DOCTYPE svg PUBLIC "-//W3C//DTD SVG 1.1//EN" "http://www.w3.org/Graphics/SVG/1.1/DTD/svg11.dtd">
<svg version="1.1" id="Capa_1" xmlns="http://www.w3.org/2000/svg" xmlns:xlink="http://www.w3.org/1999/xlink" x="0px" y="0px"
	 viewBox="0 0 49.656 49.656" style="enable-background:new 0 0 49.656 49.656;" xml:space="preserve">
<g>
	<polygon style="fill:#45444f;" points="14.535,48.242 11.707,45.414 32.292,24.828 11.707,4.242 14.535,1.414 37.949,24.828 	"/>
	<path style="fill:#45444f;" d="M14.535,49.656l-4.242-4.242l20.585-20.586L10.293,4.242L14.535,0l24.829,24.828L14.535,49.656z
		 M13.121,45.414l1.414,1.414l22-22l-22-22l-1.414,1.414l20.585,20.586L13.121,45.414z"/>
</g>
<g>
</g>
<g>
</g>
<g>
</g>
<g>
</g>
<g>
</g>
<g>
</g>
<g>
</g>
<g>
</g>
<g>
</g>
<g>
</g>
<g>
</g>
<g>
</g>
<g>
</g>
<g>
</g>
<g>
</g>
</svg>
